[{"lesson_id":1, "lesson_title":"Lesson 1", "lesson_description":"Lorem ipsum dolor sit amet, consectetur adipiscing elit. Sed blandit ex orci, vitae consectetur felis vehicula a.", "lesson_order":1, "lesson_upload_date":"2021-08-15 20:07:26", "lesson_date":"2021-09-23 10:47:56", "lesson_last_update":"2021-08-25 00:14:26", "lesson_content":"{\"body\":\"<div><h3>Advanced Components</h3><p>This is the course content paragraph.</p><div>Learn when to choose composition over inheritance, what is the differnce between stacks and queues.</div></div><br/><table><thead><tr><th>Quarter</th><th>Revenue</th><th>Costs</th></tr></thead><tbody><tr><th>Q1</th><td>$10M</td><td>$7.5M</td></tr><tr><th>Q2</th><td>$12M</td><td>$5M</td></tr></tbody><tfoot><tr><th>Total</th><td>$22M</td><td>$12.5M</td></tr></tfoot></table><br/><img src='https://i.stack.imgur.com/E4wh6.gif' alt='Stacks and Queues'>\",\"iframes\":[\"<iframe style='width: 100%;' src='https://docs.google.com/document/d/e/2PACX-1vSqIowZqRnb78hcAnMn9Cx2Nh11O3hJMPjh-kHpuARacb9WSclp-nQfkK5F8pVZwId5xFm76yLyJeV6/pub?embedded=true'></iframe>\",\"<iframe width='560' height='315' src='https://www.youtube.com/embed/y17RuWkWdn8' title='YouTube video player' frameborder='0' allow='accelerometer; autoplay; clipboard-write; encrypted-media; gyroscope; picture-in-picture' allowfullscreen></iframe>\"]}", "lesson_history":"[{\"lessonTitle\":\"Lesson 1\",\"lessonDescription\":\"Lorem ipsum dolor sit amet, consectetur adipiscing elit. Sed blandit ex orci, vitae consectetur felis vehicula a.\",\"lessonDate\":\"2021-09-23T07:47:56.000Z\",\"lessonContent\":\"{\\\"bodies\\\":[\\\"<div><h3>Advanced Components</h3><p>This is the course content paragraph.</p><div>Learn when to choose composition over inheritance, what is the differnce between stacks and queues.</div></div>\\\",\\\"<table><thead><tr><th>Quarter</th><th>Revenue</th><th>Costs</th></tr></thead><tbody><tr><th>Q1</th><td>$10M</td><td>$7.5M</td></tr><tr><th>Q2</th><td>$12M</td><td>$5M</td></tr></tbody><tfoot><tr><th>Total</th><td>$22M</td><td>$12.5M</td></tr></tfoot></table>\\\",\\\"<img src='https://i.stack.imgur.com/E4wh6.gif' alt='Stacks and Queues'>\\\"],\\\"iframes\\\":[\\\"<iframe style='width: 100%;' src='https://docs.google.com/document/d/e/2PACX-1vSqIowZqRnb78hcAnMn9Cx2Nh11O3hJMPjh-kHpuARacb9WSclp-nQfkK5F8pVZwId5xFm76yLyJeV6/pub?embedded=true'></iframe>\\\",\\\"<iframe width='560' height='315' src='https://www.youtube.com/embed/y17RuWkWdn8' title='YouTube video player' frameborder='0' allow='accelerometer; autoplay; clipboard-write; encrypted-media; gyroscope; picture-in-picture' allowfullscreen></iframe>\\\"]}\",\"lessonSectionId\":1},{\"lessonTitle\":\"Lesson 1\",\"lessonDescription\":\"Lorem ipsum dolor sit amet, consectetur adipiscing elit. Sed blandit ex orci, vitae consectetur felis vehicula a.\",\"lessonDate\":\"2021-09-23T07:47:56.000Z\",\"lessonContent\":\"{\\\"bodies\\\":[\\\"<div><h5>Advanced Components</h5><p>This is the course content paragraph.</p><div>Learn when to choose composition over inheritance, what is the differnce between stacks and queues.</div></div>\\\",\\\"<table><thead><tr><th>Quarter</th><th>Revenue</th><th>Costs</th></tr></thead><tbody><tr><th>Q1</th><td>$10M</td><td>$7.5M</td></tr><tr><th>Q2</th><td>$12M</td><td>$5M</td></tr></tbody><tfoot><tr><th>Total</th><td>$22M</td><td>$12.5M</td></tr></tfoot></table>\\\",\\\"<img src='https://i.stack.imgur.com/E4wh6.gif' alt='Stacks and Queues'>\\\"],\\\"iframes\\\":[\\\"<iframe style='width: 100%;' src='https://docs.google.com/document/d/e/2PACX-1vSqIowZqRnb78hcAnMn9Cx2Nh11O3hJMPjh-kHpuARacb9WSclp-nQfkK5F8pVZwId5xFm76yLyJeV6/pub?embedded=true'></iframe>\\\",\\\"<iframe width='560' height='315' src='https://www.youtube.com/embed/y17RuWkWdn8' title='YouTube video player' frameborder='0' allow='accelerometer; autoplay; clipboard-write; encrypted-media; gyroscope; picture-in-picture' allowfullscreen></iframe>\\\"]}\",\"lessonSectionId\":1},{\"lessonTitle\":\"Lesson 1\",\"lessonDescription\":\"Lorem ipsum dolor sit amet, consectetur adipiscing elit. Sed blandit ex orci, vitae consectetur felis vehicula a.\",\"lessonDate\":\"2021-09-23T07:47:56.000Z\",\"lessonContent\":\"<iframe style=\\\"width: 100%;\\\" src=\\\"https://docs.google.com/document/d/e/2PACX-1vSqIowZqRnb78hcAnMn9Cx2Nh11O3hJMPjh-kHpuARacb9WSclp-nQfkK5F8pVZwId5xFm76yLyJeV6/pub?embedded=true\\\"></iframe>\",\"lessonSectionId\":1}]", "lesson_isdeleted":0, "lesson_section_id":1},
 {"lesson_id":2, "lesson_title":"Lesson 2", "lesson_description":"Lorem ipsum dolor sit amet, consectetur adipiscing elit. Sed blandit ex orci, vitae consectetur felis vehicula a. Morbi quis eros pulvinar, dignissim tellus vel, egestas ipsum. Lorem ipsum dolor sit amet, consectetur adipiscing elit. Maecenas ac ultricies tortor. ", "lesson_order":2, "lesson_upload_date":"2021-08-15 20:07:26", "lesson_date":"2019-10-12 00:00:00", "lesson_last_update":"2021-08-25 00:14:30", "lesson_content":"{\"body\":\"<div><h3>Advanced Components</h3><p>This is the course content paragraph.</p><div>Learn when to choose composition over inheritance, what is the differnce between stacks and queues.</div></div><br/><table><thead><tr><th>Quarter</th><th>Revenue</th><th>Costs</th></tr></thead><tbody><tr><th>Q1</th><td>$10M</td><td>$7.5M</td></tr><tr><th>Q2</th><td>$12M</td><td>$5M</td></tr></tbody><tfoot><tr><th>Total</th><td>$22M</td><td>$12.5M</td></tr></tfoot></table><br/><img src='https://i.stack.imgur.com/E4wh6.gif' alt='Stacks and Queues'>\",\"iframes\":[\"<iframe style='width: 100%;' src='https://docs.google.com/document/d/e/2PACX-1vSqIowZqRnb78hcAnMn9Cx2Nh11O3hJMPjh-kHpuARacb9WSclp-nQfkK5F8pVZwId5xFm76yLyJeV6/pub?embedded=true'></iframe>\",\"<iframe width='560' height='315' src='https://www.youtube.com/embed/y17RuWkWdn8' title='YouTube video player' frameborder='0' allow='accelerometer; autoplay; clipboard-write; encrypted-media; gyroscope; picture-in-picture' allowfullscreen></iframe>\"]}", "lesson_history":"[{\"lessonTitle\":\"Lesson 2\",\"lessonDescription\":\"Lorem ipsum dolor sit amet, consectetur adipiscing elit. Sed blandit ex orci, vitae consectetur felis vehicula a. Morbi quis eros pulvinar, dignissim tellus vel, egestas ipsum. Lorem ipsum dolor sit amet, consectetur adipiscing elit. Maecenas ac ultricies tortor. \",\"lessonDate\":\"2019-10-11T21:00:00.000Z\",\"lessonContent\":\"{\\\"bodies\\\":[\\\"<div><h3>Advanced Components</h3><p>This is the course content paragraph.</p><div>Learn when to choose composition over inheritance, what is the differnce between stacks and queues.</div></div>\\\",\\\"<table><thead><tr><th>Quarter</th><th>Revenue</th><th>Costs</th></tr></thead><tbody><tr><th>Q1</th><td>$10M</td><td>$7.5M</td></tr><tr><th>Q2</th><td>$12M</td><td>$5M</td></tr></tbody><tfoot><tr><th>Total</th><td>$22M</td><td>$12.5M</td></tr></tfoot></table>\\\",\\\"<img src='https://i.stack.imgur.com/E4wh6.gif' alt='Stacks and Queues'>\\\"],\\\"iframes\\\":[\\\"<iframe style='width: 100%;' src='https://docs.google.com/document/d/e/2PACX-1vSqIowZqRnb78hcAnMn9Cx2Nh11O3hJMPjh-kHpuARacb9WSclp-nQfkK5F8pVZwId5xFm76yLyJeV6/pub?embedded=true'></iframe>\\\",\\\"<iframe width='560' height='315' src='https://www.youtube.com/embed/y17RuWkWdn8' title='YouTube video player' frameborder='0' allow='accelerometer; autoplay; clipboard-write; encrypted-media; gyroscope; picture-in-picture' allowfullscreen></iframe>\\\"]}\",\"lessonSectionId\":1},{\"lessonTitle\":\"Lesson 2\",\"lessonDescription\":\"Lorem ipsum dolor sit amet, consectetur adipiscing elit. Sed blandit ex orci, vitae consectetur felis vehicula a. Morbi quis eros pulvinar, dignissim tellus vel, egestas ipsum. Lorem ipsum dolor sit amet, consectetur adipiscing elit. Maecenas ac ultricies tortor. \",\"lessonDate\":\"2019-10-11T21:00:00.000Z\",\"lessonContent\":\"<iframe width=\\\"560\\\" height=\\\"315\\\" src=\\\"https://www.youtube.com/embed/y17RuWkWdn8\\\" title=\\\"YouTube video player\\\" frameborder=\\\"0\\\" allow=\\\"accelerometer; autoplay; clipboard-write; encrypted-media; gyroscope; picture-in-picture\\\" allowfullscreen></iframe>\",\"lessonSectionId\":1}]", "lesson_isdeleted":0, "lesson_section_id":1},
 {"lesson_id":3, "lesson_title":"Lesson 3", "lesson_description":"Lorem ipsum dolor sit amet, consectetur adipiscing elit.", "lesson_order":3, "lesson_upload_date":"2021-08-15 20:07:26", "lesson_date":"2021-08-15 10:47:56", "lesson_last_update":"2021-08-25 00:14:34", "lesson_content":"{\"body\":\"<div><h3>Advanced Components</h3><p>This is the course content paragraph.</p><div>Learn when to choose composition over inheritance, what is the differnce between stacks and queues.</div></div><br/><table><thead><tr><th>Quarter</th><th>Revenue</th><th>Costs</th></tr></thead><tbody><tr><th>Q1</th><td>$10M</td><td>$7.5M</td></tr><tr><th>Q2</th><td>$12M</td><td>$5M</td></tr></tbody><tfoot><tr><th>Total</th><td>$22M</td><td>$12.5M</td></tr></tfoot></table><br/><img src='https://i.stack.imgur.com/E4wh6.gif' alt='Stacks and Queues'>\",\"iframes\":[\"<iframe style='width: 100%;' src='https://docs.google.com/document/d/e/2PACX-1vSqIowZqRnb78hcAnMn9Cx2Nh11O3hJMPjh-kHpuARacb9WSclp-nQfkK5F8pVZwId5xFm76yLyJeV6/pub?embedded=true'></iframe>\",\"<iframe width='560' height='315' src='https://www.youtube.com/embed/y17RuWkWdn8' title='YouTube video player' frameborder='0' allow='accelerometer; autoplay; clipboard-write; encrypted-media; gyroscope; picture-in-picture' allowfullscreen></iframe>\"]}", "lesson_history":"[{\"lessonTitle\":\"Lesson 3\",\"lessonDescription\":\"Lorem ipsum dolor sit amet, consectetur adipiscing elit.\",\"lessonDate\":\"2021-08-15T07:47:56.000Z\",\"lessonContent\":\"{\\\"bodies\\\":[\\\"<div><h3>Advanced Components</h3><p>This is the course content paragraph.</p><div>Learn when to choose composition over inheritance, what is the differnce between stacks and queues.</div></div>\\\",\\\"<table><thead><tr><th>Quarter</th><th>Revenue</th><th>Costs</th></tr></thead><tbody><tr><th>Q1</th><td>$10M</td><td>$7.5M</td></tr><tr><th>Q2</th><td>$12M</td><td>$5M</td></tr></tbody><tfoot><tr><th>Total</th><td>$22M</td><td>$12.5M</td></tr></tfoot></table>\\\",\\\"<img src='https://i.stack.imgur.com/E4wh6.gif' alt='Stacks and Queues'>\\\"],\\\"iframes\\\":[\\\"<iframe style='width: 100%;' src='https://docs.google.com/document/d/e/2PACX-1vSqIowZqRnb78hcAnMn9Cx2Nh11O3hJMPjh-kHpuARacb9WSclp-nQfkK5F8pVZwId5xFm76yLyJeV6/pub?embedded=true'></iframe>\\\",\\\"<iframe width='560' height='315' src='https://www.youtube.com/embed/y17RuWkWdn8' title='YouTube video player' frameborder='0' allow='accelerometer; autoplay; clipboard-write; encrypted-media; gyroscope; picture-in-picture' allowfullscreen></iframe>\\\"]}\",\"lessonSectionId\":1},{\"lessonTitle\":\"Lesson 3\",\"lessonDescription\":\"Lorem ipsum dolor sit amet, consectetur adipiscing elit.\",\"lessonDate\":\"2021-08-15T07:47:56.000Z\",\"lessonContent\":\"<img src=\\\"https://i.stack.imgur.com/E4wh6.gif\\\" alt=\\\"Stacks and Queues\\\">\",\"lessonSectionId\":1}]", "lesson_isdeleted":0, "lesson_section_id":1},
 {"lesson_id":4, "lesson_title":"Lesson 4", "lesson_description":"Lorem ipsum dolor sit amet, consectetur adipiscing elit. Sed blandit ex orci, vitae consectetur felis vehicula a. Morbi quis eros pulvinar, dignissim tellus vel, egestas ipsum. Lorem ipsum dolor sit amet, consectetur adipiscing elit. Maecenas ac ultricies tortor. ", "lesson_order":4, "lesson_upload_date":"2021-08-15 20:07:26", "lesson_date":"2021-08-15 10:47:56", "lesson_last_update":"2021-08-25 00:14:37", "lesson_content":"{\"body\":\"<div><h3>Advanced Components</h3><p>This is the course content paragraph.</p><div>Learn when to choose composition over inheritance, what is the differnce between stacks and queues.</div></div><br/><table><thead><tr><th>Quarter</th><th>Revenue</th><th>Costs</th></tr></thead><tbody><tr><th>Q1</th><td>$10M</td><td>$7.5M</td></tr><tr><th>Q2</th><td>$12M</td><td>$5M</td></tr></tbody><tfoot><tr><th>Total</th><td>$22M</td><td>$12.5M</td></tr></tfoot></table><br/><img src='https://i.stack.imgur.com/E4wh6.gif' alt='Stacks and Queues'>\",\"iframes\":[\"<iframe style='width: 100%;' src='https://docs.google.com/document/d/e/2PACX-1vSqIowZqRnb78hcAnMn9Cx2Nh11O3hJMPjh-kHpuARacb9WSclp-nQfkK5F8pVZwId5xFm76yLyJeV6/pub?embedded=true'></iframe>\",\"<iframe width='560' height='315' src='https://www.youtube.com/embed/y17RuWkWdn8' title='YouTube video player' frameborder='0' allow='accelerometer; autoplay; clipboard-write; encrypted-media; gyroscope; picture-in-picture' allowfullscreen></iframe>\"]}", "lesson_history":"[{\"lessonTitle\":\"Lesson 4\",\"lessonDescription\":\"Lorem ipsum dolor sit amet, consectetur adipiscing elit. Sed blandit ex orci, vitae consectetur felis vehicula a. Morbi quis eros pulvinar, dignissim tellus vel, egestas ipsum. Lorem ipsum dolor sit amet, consectetur adipiscing elit. Maecenas ac ultricies tortor. \",\"lessonDate\":\"2021-08-15T07:47:56.000Z\",\"lessonContent\":\"{\\\"bodies\\\":[\\\"<div><h3>Advanced Components</h3><p>This is the course content paragraph.</p><div>Learn when to choose composition over inheritance, what is the differnce between stacks and queues.</div></div>\\\",\\\"<table><thead><tr><th>Quarter</th><th>Revenue</th><th>Costs</th></tr></thead><tbody><tr><th>Q1</th><td>$10M</td><td>$7.5M</td></tr><tr><th>Q2</th><td>$12M</td><td>$5M</td></tr></tbody><tfoot><tr><th>Total</th><td>$22M</td><td>$12.5M</td></tr></tfoot></table>\\\",\\\"<img src='https://i.stack.imgur.com/E4wh6.gif' alt='Stacks and Queues'>\\\"],\\\"iframes\\\":[\\\"<iframe style='width: 100%;' src='https://docs.google.com/document/d/e/2PACX-1vSqIowZqRnb78hcAnMn9Cx2Nh11O3hJMPjh-kHpuARacb9WSclp-nQfkK5F8pVZwId5xFm76yLyJeV6/pub?embedded=true'></iframe>\\\",\\\"<iframe width='560' height='315' src='https://www.youtube.com/embed/y17RuWkWdn8' title='YouTube video player' frameborder='0' allow='accelerometer; autoplay; clipboard-write; encrypted-media; gyroscope; picture-in-picture' allowfullscreen></iframe>\\\"]}\",\"lessonSectionId\":1},{\"lessonTitle\":\"Lesson 4\",\"lessonDescription\":\"Lorem ipsum dolor sit amet, consectetur adipiscing elit. Sed blandit ex orci, vitae consectetur felis vehicula a. Morbi quis eros pulvinar, dignissim tellus vel, egestas ipsum. Lorem ipsum dolor sit amet, consectetur adipiscing elit. Maecenas ac ultricies tortor. \",\"lessonDate\":\"2021-08-15T07:47:56.000Z\",\"lessonContent\":\"<iframe style=\\\"width:100%\\\" src=\\\"https://docs.google.com/document/d/e/2PACX-1vSqIowZqRnb78hcAnMn9Cx2Nh11O3hJMPjh-kHpuARacb9WSclp-nQfkK5F8pVZwId5xFm76yLyJeV6/pub?embedded=true\\\"></iframe>\",\"lessonSectionId\":1}]", "lesson_isdeleted":0, "lesson_section_id":1},
 {"lesson_id":5, "lesson_title":"Lesson 5", "lesson_description":"Lorem ipsum dolor sit amet, consectetur adipiscing elit. Sed blandit ex orci, vitae consectetur felis vehicula a.", "lesson_order":5, "lesson_upload_date":"2021-08-15 20:07:26", "lesson_date":"2021-08-15 10:47:56", "lesson_last_update":"2021-08-25 00:14:42", "lesson_content":"{\"body\":\"<div><h3>Advanced Components</h3><p>This is the course content paragraph.</p><div>Learn when to choose composition over inheritance, what is the differnce between stacks and queues.</div></div><br/><table><thead><tr><th>Quarter</th><th>Revenue</th><th>Costs</th></tr></thead><tbody><tr><th>Q1</th><td>$10M</td><td>$7.5M</td></tr><tr><th>Q2</th><td>$12M</td><td>$5M</td></tr></tbody><tfoot><tr><th>Total</th><td>$22M</td><td>$12.5M</td></tr></tfoot></table><br/><img src='https://i.stack.imgur.com/E4wh6.gif' alt='Stacks and Queues'>\",\"iframes\":[\"<iframe style='width: 100%;' src='https://docs.google.com/document/d/e/2PACX-1vSqIowZqRnb78hcAnMn9Cx2Nh11O3hJMPjh-kHpuARacb9WSclp-nQfkK5F8pVZwId5xFm76yLyJeV6/pub?embedded=true'></iframe>\",\"<iframe width='560' height='315' src='https://www.youtube.com/embed/y17RuWkWdn8' title='YouTube video player' frameborder='0' allow='accelerometer; autoplay; clipboard-write; encrypted-media; gyroscope; picture-in-picture' allowfullscreen></iframe>\"]}", "lesson_history":"[{\"lessonTitle\":\"Lesson 5\",\"lessonDescription\":\"Lorem ipsum dolor sit amet, consectetur adipiscing elit. Sed blandit ex orci, vitae consectetur felis vehicula a.\",\"lessonDate\":\"2021-08-15T07:47:56.000Z\",\"lessonContent\":\"{\\\"bodies\\\":[\\\"<div><h3>Advanced Components</h3><p>This is the course content paragraph.</p><div>Learn when to choose composition over inheritance, what is the differnce between stacks and queues.</div></div>\\\",\\\"<table><thead><tr><th>Quarter</th><th>Revenue</th><th>Costs</th></tr></thead><tbody><tr><th>Q1</th><td>$10M</td><td>$7.5M</td></tr><tr><th>Q2</th><td>$12M</td><td>$5M</td></tr></tbody><tfoot><tr><th>Total</th><td>$22M</td><td>$12.5M</td></tr></tfoot></table>\\\",\\\"<img src='https://i.stack.imgur.com/E4wh6.gif' alt='Stacks and Queues'>\\\"],\\\"iframes\\\":[\\\"<iframe style='width: 100%;' src='https://docs.google.com/document/d/e/2PACX-1vSqIowZqRnb78hcAnMn9Cx2Nh11O3hJMPjh-kHpuARacb9WSclp-nQfkK5F8pVZwId5xFm76yLyJeV6/pub?embedded=true'></iframe>\\\",\\\"<iframe width='560' height='315' src='https://www.youtube.com/embed/y17RuWkWdn8' title='YouTube video player' frameborder='0' allow='accelerometer; autoplay; clipboard-write; encrypted-media; gyroscope; picture-in-picture' allowfullscreen></iframe>\\\"]}\",\"lessonSectionId\":1},{\"lessonTitle\":\"Lesson 5\",\"lessonDescription\":\"Lorem ipsum dolor sit amet, consectetur adipiscing elit. Sed blandit ex orci, vitae consectetur felis vehicula a.\",\"lessonDate\":\"2021-08-15T07:47:56.000Z\",\"lessonContent\":\"<div style=\\\"left: 0; width: 100%; height: 0; position: relative; padding-bottom: 56.25%;\\\"><iframe src=\\\"https://player.vimeo.com/video/141567420?byline=0&amp;badge=0&amp;portrait=0&amp;title=0\\\" style=\\\"top: 0; left: 0; width: 100%; height: 100%; position: absolute; border: 0;\\\" allowfullscreen scrolling=\\\"no\\\" allow=\\\"encrypted-media;\\\"></iframe></div>\",\"lessonSectionId\":1}]", "lesson_isdeleted":0, "lesson_section_id":1},
 {"lesson_id":6, "lesson_title":"Lesson 6", "lesson_description":"Lorem ipsum dolor sit amet, consectetur adipiscing elit. Maecenas ac ultricies tortor. ", "lesson_order":6, "lesson_upload_date":"2021-08-15 20:07:26", "lesson_date":"2021-08-15 10:47:56", "lesson_last_update":"2021-08-25 00:14:45", "lesson_content":"{\"body\":\"<div><h3>Advanced Components</h3><p>This is the course content paragraph.</p><div>Learn when to choose composition over inheritance, what is the differnce between stacks and queues.</div></div><br/><table><thead><tr><th>Quarter</th><th>Revenue</th><th>Costs</th></tr></thead><tbody><tr><th>Q1</th><td>$10M</td><td>$7.5M</td></tr><tr><th>Q2</th><td>$12M</td><td>$5M</td></tr></tbody><tfoot><tr><th>Total</th><td>$22M</td><td>$12.5M</td></tr></tfoot></table><br/><img src='https://i.stack.imgur.com/E4wh6.gif' alt='Stacks and Queues'>\",\"iframes\":[\"<iframe style='width: 100%;' src='https://docs.google.com/document/d/e/2PACX-1vSqIowZqRnb78hcAnMn9Cx2Nh11O3hJMPjh-kHpuARacb9WSclp-nQfkK5F8pVZwId5xFm76yLyJeV6/pub?embedded=true'></iframe>\",\"<iframe width='560' height='315' src='https://www.youtube.com/embed/y17RuWkWdn8' title='YouTube video player' frameborder='0' allow='accelerometer; autoplay; clipboard-write; encrypted-media; gyroscope; picture-in-picture' allowfullscreen></iframe>\"]}", "lesson_history":"[{\"lessonTitle\":\"Lesson 6\",\"lessonDescription\":\"Lorem ipsum dolor sit amet, consectetur adipiscing elit. Maecenas ac ultricies tortor. \",\"lessonDate\":\"2021-08-15T07:47:56.000Z\",\"lessonContent\":\"{\\\"bodies\\\":[\\\"<div><h3>Advanced Components</h3><p>This is the course content paragraph.</p><div>Learn when to choose composition over inheritance, what is the differnce between stacks and queues.</div></div>\\\",\\\"<table><thead><tr><th>Quarter</th><th>Revenue</th><th>Costs</th></tr></thead><tbody><tr><th>Q1</th><td>$10M</td><td>$7.5M</td></tr><tr><th>Q2</th><td>$12M</td><td>$5M</td></tr></tbody><tfoot><tr><th>Total</th><td>$22M</td><td>$12.5M</td></tr></tfoot></table>\\\",\\\"<img src='https://i.stack.imgur.com/E4wh6.gif' alt='Stacks and Queues'>\\\"],\\\"iframes\\\":[\\\"<iframe style='width: 100%;' src='https://docs.google.com/document/d/e/2PACX-1vSqIowZqRnb78hcAnMn9Cx2Nh11O3hJMPjh-kHpuARacb9WSclp-nQfkK5F8pVZwId5xFm76yLyJeV6/pub?embedded=true'></iframe>\\\",\\\"<iframe width='560' height='315' src='https://www.youtube.com/embed/y17RuWkWdn8' title='YouTube video player' frameborder='0' allow='accelerometer; autoplay; clipboard-write; encrypted-media; gyroscope; picture-in-picture' allowfullscreen></iframe>\\\"]}\",\"lessonSectionId\":1},{\"lessonTitle\":\"Lesson 6\",\"lessonDescription\":\"Lorem ipsum dolor sit amet, consectetur adipiscing elit. Maecenas ac ultricies tortor. \",\"lessonDate\":\"2021-08-15T07:47:56.000Z\",\"lessonContent\":\"<table><thead><tr><th>Quarter</th><th>Revenue</th><th>Costs</th></tr></thead><tbody><tr><th>Q1</th><td>$10M</td><td>$7.5M</td></tr><tr><th>Q2</th><td>$12M</td><td>$5M</td></tr></tbody><tfoot><tr><th>Total</th><td>$22M</td><td>$12.5M</td></tr></tfoot></table>\",\"lessonSectionId\":1}]", "lesson_isdeleted":0, "lesson_section_id":1},
 {"lesson_id":7, "lesson_title":"Lesson 7", "lesson_description":"Description 7", "lesson_order":1, "lesson_upload_date":"2021-08-15 20:07:26", "lesson_date":"2021-09-17 10:47:56", "lesson_last_update":"2021-08-25 00:14:49", "lesson_content":"{\"body\":\"<div><h3>Advanced Components</h3><p>This is the course content paragraph.</p><div>Learn when to choose composition over inheritance, what is the differnce between stacks and queues.</div></div><br/><table><thead><tr><th>Quarter</th><th>Revenue</th><th>Costs</th></tr></thead><tbody><tr><th>Q1</th><td>$10M</td><td>$7.5M</td></tr><tr><th>Q2</th><td>$12M</td><td>$5M</td></tr></tbody><tfoot><tr><th>Total</th><td>$22M</td><td>$12.5M</td></tr></tfoot></table><br/><img src='https://i.stack.imgur.com/E4wh6.gif' alt='Stacks and Queues'>\",\"iframes\":[\"<iframe style='width: 100%;' src='https://docs.google.com/document/d/e/2PACX-1vSqIowZqRnb78hcAnMn9Cx2Nh11O3hJMPjh-kHpuARacb9WSclp-nQfkK5F8pVZwId5xFm76yLyJeV6/pub?embedded=true'></iframe>\",\"<iframe width='560' height='315' src='https://www.youtube.com/embed/y17RuWkWdn8' title='YouTube video player' frameborder='0' allow='accelerometer; autoplay; clipboard-write; encrypted-media; gyroscope; picture-in-picture' allowfullscreen></iframe>\"]}", "lesson_history":"[{\"lessonTitle\":\"Lesson 7\",\"lessonDescription\":\"Description 7\",\"lessonDate\":\"2021-09-17T07:47:56.000Z\",\"lessonContent\":\"{\\\"bodies\\\":[\\\"<div><h3>Advanced Components</h3><p>This is the course content paragraph.</p><div>Learn when to choose composition over inheritance, what is the differnce between stacks and queues.</div></div>\\\",\\\"<table><thead><tr><th>Quarter</th><th>Revenue</th><th>Costs</th></tr></thead><tbody><tr><th>Q1</th><td>$10M</td><td>$7.5M</td></tr><tr><th>Q2</th><td>$12M</td><td>$5M</td></tr></tbody><tfoot><tr><th>Total</th><td>$22M</td><td>$12.5M</td></tr></tfoot></table>\\\",\\\"<img src='https://i.stack.imgur.com/E4wh6.gif' alt='Stacks and Queues'>\\\"],\\\"iframes\\\":[\\\"<iframe style='width: 100%;' src='https://docs.google.com/document/d/e/2PACX-1vSqIowZqRnb78hcAnMn9Cx2Nh11O3hJMPjh-kHpuARacb9WSclp-nQfkK5F8pVZwId5xFm76yLyJeV6/pub?embedded=true'></iframe>\\\",\\\"<iframe width='560' height='315' src='https://www.youtube.com/embed/y17RuWkWdn8' title='YouTube video player' frameborder='0' allow='accelerometer; autoplay; clipboard-write; encrypted-media; gyroscope; picture-in-picture' allowfullscreen></iframe>\\\"]}\",\"lessonSectionId\":2},{\"lessonTitle\":\"Lesson 7\",\"lessonDescription\":\"Description 7\",\"lessonDate\":\"2021-09-17T07:47:56.000Z\",\"lessonContent\":\"<div><p>This is the course content paragraph.</p><h2>Advanced Components</h2><div>Learn when to choose composition over inheritance, what is the differnce between stacks and queues.</div></div>\",\"lessonSectionId\":2}]", "lesson_isdeleted":0, "lesson_section_id":2},
 {"lesson_id":8, "lesson_title":"Lesson 8", "lesson_description":"Description 8. Lorem ipsum dolor sit amet, consectetur adipiscing elit. Maecenas ac ultricies tortor. ", "lesson_order":1, "lesson_upload_date":"2021-08-15 20:07:26", "lesson_date":"2021-09-20 10:47:56", "lesson_last_update":"2021-08-25 00:14:53", "lesson_content":"{\"body\":\"<div><h3>Advanced Components</h3><p>This is the course content paragraph.</p><div>Learn when to choose composition over inheritance, what is the differnce between stacks and queues.</div></div><br/><table><thead><tr><th>Quarter</th><th>Revenue</th><th>Costs</th></tr></thead><tbody><tr><th>Q1</th><td>$10M</td><td>$7.5M</td></tr><tr><th>Q2</th><td>$12M</td><td>$5M</td></tr></tbody><tfoot><tr><th>Total</th><td>$22M</td><td>$12.5M</td></tr></tfoot></table><br/><img src='https://i.stack.imgur.com/E4wh6.gif' alt='Stacks and Queues'>\",\"iframes\":[\"<iframe style='width: 100%;' src='https://docs.google.com/document/d/e/2PACX-1vSqIowZqRnb78hcAnMn9Cx2Nh11O3hJMPjh-kHpuARacb9WSclp-nQfkK5F8pVZwId5xFm76yLyJeV6/pub?embedded=true'></iframe>\",\"<iframe width='560' height='315' src='https://www.youtube.com/embed/y17RuWkWdn8' title='YouTube video player' frameborder='0' allow='accelerometer; autoplay; clipboard-write; encrypted-media; gyroscope; picture-in-picture' allowfullscreen></iframe>\"]}", "lesson_history":"[{\"lessonTitle\":\"Lesson 8\",\"lessonDescription\":\"Description 8. Lorem ipsum dolor sit amet, consectetur adipiscing elit. Maecenas ac ultricies tortor. \",\"lessonDate\":\"2021-09-20T07:47:56.000Z\",\"lessonContent\":\"{\\\"bodies\\\":[\\\"<div><h3>Advanced Components</h3><p>This is the course content paragraph.</p><div>Learn when to choose composition over inheritance, what is the differnce between stacks and queues.</div></div>\\\",\\\"<table><thead><tr><th>Quarter</th><th>Revenue</th><th>Costs</th></tr></thead><tbody><tr><th>Q1</th><td>$10M</td><td>$7.5M</td></tr><tr><th>Q2</th><td>$12M</td><td>$5M</td></tr></tbody><tfoot><tr><th>Total</th><td>$22M</td><td>$12.5M</td></tr></tfoot></table>\\\",\\\"<img src='https://i.stack.imgur.com/E4wh6.gif' alt='Stacks and Queues'>\\\"],\\\"iframes\\\":[\\\"<iframe style='width: 100%;' src='https://docs.google.com/document/d/e/2PACX-1vSqIowZqRnb78hcAnMn9Cx2Nh11O3hJMPjh-kHpuARacb9WSclp-nQfkK5F8pVZwId5xFm76yLyJeV6/pub?embedded=true'></iframe>\\\",\\\"<iframe width='560' height='315' src='https://www.youtube.com/embed/y17RuWkWdn8' title='YouTube video player' frameborder='0' allow='accelerometer; autoplay; clipboard-write; encrypted-media; gyroscope; picture-in-picture' allowfullscreen></iframe>\\\"]}\",\"lessonSectionId\":2},{\"lessonTitle\":\"Lesson 8\",\"lessonDescription\":\"Description 8. Lorem ipsum dolor sit amet, consectetur adipiscing elit. Maecenas ac ultricies tortor. \",\"lessonDate\":\"2021-09-20T07:47:56.000Z\",\"lessonContent\":\"<img src=\\\"https://lh3.googleusercontent.com/6OH8iTZCtAEJqWEXN0PC5OHrBW786rBGfAlWwNMNjXVt6tPg70fVwxKKSI29ER4EXTvnDA=s113\\\" alt=\\\"image\\\">\",\"lessonSectionId\":2}]", "lesson_isdeleted":0, "lesson_section_id":2},
 {"lesson_id":9, "lesson_title":"Lesson 9", "lesson_description":"Description 9", "lesson_order":1, "lesson_upload_date":"2021-08-15 20:07:26", "lesson_date":"2021-09-25 10:47:56", "lesson_last_update":"2021-08-25 12:52:09", "lesson_content":"{\"body\":\"<div><h3>Advanced Components</h3><p>This is the course content paragraph.</p><div>Learn when to choose composition over inheritance, what is the differnce between stacks and queues.</div></div><br/><table><thead><tr><th>Quarter</th><th>Revenue</th><th>Costs</th></tr></thead><tbody><tr><th>Q1</th><td>$10M</td><td>$7.5M</td></tr><tr><th>Q2</th><td>$12M</td><td>$5M</td></tr></tbody><tfoot><tr><th>Total</th><td>$22M</td><td>$12.5M</td></tr></tfoot></table><br/><img src='https://i.stack.imgur.com/E4wh6.gif' alt='Stacks and Queues'>\",\"iframes\":[\"<iframe style='width: 100%;' src='https://docs.google.com/document/d/e/2PACX-1vSqIowZqRnb78hcAnMn9Cx2Nh11O3hJMPjh-kHpuARacb9WSclp-nQfkK5F8pVZwId5xFm76yLyJeV6/pub?embedded=true'></iframe>\",\"<iframe width='560' height='315' src='https://www.youtube.com/embed/y17RuWkWdn8' title='YouTube video player' frameborder='0' allow='accelerometer; autoplay; clipboard-write; encrypted-media; gyroscope; picture-in-picture' allowfullscreen></iframe>\"]}", "lesson_history":"[{\"lessonTitle\":\"Lesson 9\",\"lessonDescription\":\"Description 9\",\"lessonDate\":\"2021-09-25T07:47:56.000Z\",\"lessonContent\":\"{\\\"body\\\":\\\"<div><h3>Advanced Components</h3><p>This is the course content paragraph.</p><div>Learn when to choose composition over inheritance, what is the differnce between stacks and queues.</div></div><br/><table><thead><tr><th>Quarter</th><th>Revenue</th><th>Costs</th></tr></thead><tbody><tr><th>Q1</th><td>$10M</td><td>$7.5M</td></tr><tr><th>Q2</th><td>$12M</td><td>$5M</td></tr></tbody><tfoot><tr><th>Total</th><td>$22M</td><td>$12.5M</td></tr></tfoot></table><br/><img src='https://i.stack.imgur.com/E4wh6.gif' alt='Stacks and Queues'>\\\",\\\"iframes\\\":[\\\"<iframe style='width: 100%;' src='https://docs.google.com/document/d/e/2PACX-1vSqIowZqRnb78hcAnMn9Cx2Nh11O3hJMPjh-kHpuARacb9WSclp-nQfkK5F8pVZwId5xFm76yLyJeV6/pub?embedded=true'></iframe>\\\"]}\",\"lessonSectionId\":2},{\"lessonTitle\":\"Lesson 9\",\"lessonDescription\":\"Description 9\",\"lessonDate\":\"2021-09-25T07:47:56.000Z\",\"lessonContent\":\"{\\\"body\\\":\\\"<div><h3>Advanced Components</h3><p>This is the course content paragraph.</p><div>Learn when to choose composition over inheritance, what is the differnce between stacks and queues.</div></div><br/><table><thead><tr><th>Quarter</th><th>Revenue</th><th>Costs</th></tr></thead><tbody><tr><th>Q1</th><td>$10M</td><td>$7.5M</td></tr><tr><th>Q2</th><td>$12M</td><td>$5M</td></tr></tbody><tfoot><tr><th>Total</th><td>$22M</td><td>$12.5M</td></tr></tfoot></table><br/><img src='https://i.stack.imgur.com/E4wh6.gif' alt='Stacks and Queues'>\\\",\\\"iframes\\\":[\\\"<iframe style='width: 100%;' src='https://docs.google.com/document/d/e/2PACX-1vSqIowZqRnb78hcAnMn9Cx2Nh11O3hJMPjh-kHpuARacb9WSclp-nQfkK5F8pVZwId5xFm76yLyJeV6/pub?embedded=true'></iframe>\\\",\\\"<iframe width='560' height='315' src='https://www.youtube.com/embed/y17RuWkWdn8' title='YouTube video player' frameborder='0' allow='accelerometer; autoplay; clipboard-write; encrypted-media; gyroscope; picture-in-picture' allowfullscreen></iframe>\\\"]}\",\"lessonSectionId\":2},{\"lessonTitle\":\"Lesson 9\",\"lessonDescription\":\"Description 9\",\"lessonDate\":\"2021-09-25T07:47:56.000Z\",\"lessonContent\":\"{\\\"bodies\\\":[\\\"<div><h3>Advanced Components</h3><p>This is the course content paragraph.</p><div>Learn when to choose composition over inheritance, what is the differnce between stacks and queues.</div></div>\\\",\\\"<table><thead><tr><th>Quarter</th><th>Revenue</th><th>Costs</th></tr></thead><tbody><tr><th>Q1</th><td>$10M</td><td>$7.5M</td></tr><tr><th>Q2</th><td>$12M</td><td>$5M</td></tr></tbody><tfoot><tr><th>Total</th><td>$22M</td><td>$12.5M</td></tr></tfoot></table>\\\",\\\"<img src='https://i.stack.imgur.com/E4wh6.gif' alt='Stacks and Queues'>\\\"],\\\"iframes\\\":[\\\"<iframe style='width: 100%;' src='https://docs.google.com/document/d/e/2PACX-1vSqIowZqRnb78hcAnMn9Cx2Nh11O3hJMPjh-kHpuARacb9WSclp-nQfkK5F8pVZwId5xFm76yLyJeV6/pub?embedded=true'></iframe>\\\",\\\"<iframe width='560' height='315' src='https://www.youtube.com/embed/y17RuWkWdn8' title='YouTube video player' frameborder='0' allow='accelerometer; autoplay; clipboard-write; encrypted-media; gyroscope; picture-in-picture' allowfullscreen></iframe>\\\"]}\",\"lessonSectionId\":2},{\"lessonTitle\":\"Lesson 9\",\"lessonDescription\":\"Description 9\",\"lessonDate\":\"2021-09-25T07:47:56.000Z\",\"lessonContent\":\"<iframe src=\\\"https://docs.google.com/spreadsheets/d/e/2PACX-1vRde19hcQGuiHsGZvxo22EkXRflB-ZJYpLjgOIv5xvJjkdP3kikx27Tot-ZHvkY3vbnumFxqu8IUgRt/pubhtml?gid=0&amp;single=true&amp;widget=true&amp;headers=false\\\"></iframe>\",\"lessonSectionId\":2}]", "lesson_isdeleted":0, "lesson_section_id":2},
 {"lesson_id":10, "lesson_title":"Lesson 10", "lesson_description":"Description 10", "lesson_order":1, "lesson_upload_date":"2021-08-15 20:07:26", "lesson_date":"2021-09-21 10:47:56", "lesson_last_update":"2021-08-25 00:11:38", "lesson_content":"{\"body\":\"<div><h3>Advanced Components</h3><p>This is the course content paragraph.</p><div>Learn when to choose composition over inheritance, what is the differnce between stacks and queues.</div></div><br/><table><thead><tr><th>Quarter</th><th>Revenue</th><th>Costs</th></tr></thead><tbody><tr><th>Q1</th><td>$10M</td><td>$7.5M</td></tr><tr><th>Q2</th><td>$12M</td><td>$5M</td></tr></tbody><tfoot><tr><th>Total</th><td>$22M</td><td>$12.5M</td></tr></tfoot></table><br/><img src='https://i.stack.imgur.com/E4wh6.gif' alt='Stacks and Queues'>\",\"iframes\":[\"<iframe style='width: 100%;' src='https://docs.google.com/document/d/e/2PACX-1vSqIowZqRnb78hcAnMn9Cx2Nh11O3hJMPjh-kHpuARacb9WSclp-nQfkK5F8pVZwId5xFm76yLyJeV6/pub?embedded=true'></iframe>\",\"<iframe width='560' height='315' src='https://www.youtube.com/embed/y17RuWkWdn8' title='YouTube video player' frameborder='0' allow='accelerometer; autoplay; clipboard-write; encrypted-media; gyroscope; picture-in-picture' allowfullscreen></iframe>\"]}", "lesson_history":"[{\"lessonTitle\":\"Lesson 10\",\"lessonDescription\":\"Description 10\",\"lessonDate\":\"2021-09-21T07:47:56.000Z\",\"lessonContent\":\"{\\\"bodies\\\":[\\\"<div><h3>Advanced Components</h3><p>This is the course content paragraph.</p><div>Learn when to choose composition over inheritance, what is the differnce between stacks and queues.</div></div>\\\",\\\"<table><thead><tr><th>Quarter</th><th>Revenue</th><th>Costs</th></tr></thead><tbody><tr><th>Q1</th><td>$10M</td><td>$7.5M</td></tr><tr><th>Q2</th><td>$12M</td><td>$5M</td></tr></tbody><tfoot><tr><th>Total</th><td>$22M</td><td>$12.5M</td></tr></tfoot></table>\\\",\\\"<img src='https://i.stack.imgur.com/E4wh6.gif' alt='Stacks and Queues'>\\\"],\\\"iframes\\\":[\\\"<iframe style='width: 100%;' src='https://docs.google.com/document/d/e/2PACX-1vSqIowZqRnb78hcAnMn9Cx2Nh11O3hJMPjh-kHpuARacb9WSclp-nQfkK5F8pVZwId5xFm76yLyJeV6/pub?embedded=true'></iframe>\\\",\\\"<iframe width='560' height='315' src='https://www.youtube.com/embed/y17RuWkWdn8' title='YouTube video player' frameborder='0' allow='accelerometer; autoplay; clipboard-write; encrypted-media; gyroscope; picture-in-picture' allowfullscreen></iframe>\\\"]}\",\"lessonSectionId\":3},{\"lessonTitle\":\"Lesson 10\",\"lessonDescription\":\"Description 10\",\"lessonDate\":\"2021-09-21T07:47:56.000Z\",\"lessonContent\":\"Content 10\",\"lessonSectionId\":3},{\"lessonTitle\":\"Lesson 12\",\"lessonDescription\":\"Description 12\",\"lessonDate\":\"2021-09-21T07:47:56.000Z\",\"lessonContent\":\"Content 12\",\"lessonSectionId\":3}]", "lesson_isdeleted":0, "lesson_section_id":3},
 {"lesson_id":11, "lesson_title":"Lesson 11", "lesson_description":"Description 11", "lesson_order":1, "lesson_upload_date":"2021-08-15 20:07:26", "lesson_date":"2021-09-23 10:47:56", "lesson_last_update":"2021-08-15 20:15:57", "lesson_content":"Content 11", "lesson_history":"[{\"lessonTitle\":\"Lesson 13\",\"lessonDescription\":\"Description 13\",\"lessonDate\":\"2021-09-23T07:47:56.000Z\",\"lessonContent\":\"Content 13\",\"lessonSectionId\":3}]", "lesson_isdeleted":0, "lesson_section_id":3},
 {"lesson_id":12, "lesson_title":"Lesson 12", "lesson_description":"Description 12", "lesson_order":1, "lesson_upload_date":"2021-08-15 20:32:59", "lesson_date":"2021-09-27 10:47:56", "lesson_last_update":"", "lesson_content":"Content 12", "lesson_history":"[]", "lesson_isdeleted":1, "lesson_section_id":3},
 {"lesson_id":13, "lesson_title":"Lesson 13", "lesson_description":"Description 13", "lesson_order":1, "lesson_upload_date":"2021-08-16 15:56:09", "lesson_date":"2021-09-27 10:47:56", "lesson_last_update":"2021-08-16 15:59:52", "lesson_content":"Content 13", "lesson_history":"[{\"lessonTitle\":\"Lesson 12\",\"lessonDescription\":\"Description 12\",\"lessonDate\":\"2021-09-27T07:47:56.000Z\",\"lessonContent\":\"Content 12\",\"lessonSectionId\":3}]", "lesson_isdeleted":0, "lesson_section_id":3}]