[
  {
    "email": "louis@louis.com",
    "first_name": "Louis",
    "last_name": "Kendem",
    "birthdate": "1994-04-03",
    "password": "password"
  },
  {
    "email": "veneta@venata.com",
    "first_name": "Veneta",
    "last_name": "Grigorova",
    "birthdate": "1996-12-17",
    "password": "password"
  },
  {
    "email": "hkohneke0@csmonitor.com",
    "first_name": "Hermy",
    "last_name": "Kohneke",
    "birthdate": "1976-11-20",
    "password": "GBSBEp8h"
  },
  {
    "email": "nrawson1@arstechnica.com",
    "first_name": "Noelani",
    "last_name": "Rawson",
    "birthdate": "1968-12-27",
    "password": "FMpuiNdVHI"
  },
  {
    "email": "scordero2@go.com",
    "first_name": "Susanetta",
    "last_name": "Cordero",
    "birthdate": "1967-11-05",
    "password": "uo1MDo7qrbA"
  },
  {
    "email": "ihegley3@flavors.me",
    "first_name": "Itch",
    "last_name": "Hegley",
    "birthdate": "1993-09-20",
    "password": "kGZcnp0kllt"
  },
  {
    "email": "mlangrick4@craigslist.org",
    "first_name": "Mira",
    "last_name": "Langrick",
    "birthdate": "1964-07-13",
    "password": "r53KUH3"
  },
  {
    "email": "sburkwood5@shareasale.com",
    "first_name": "Silvio",
    "last_name": "Burkwood",
    "birthdate": "1986-04-29",
    "password": "VGCxOWzoGq7u"
  },
  {
    "email": "bblampied6@oracle.com",
    "first_name": "Burr",
    "last_name": "Blampied",
    "birthdate": "1978-07-08",
    "password": "V4rvns1o"
  },
  {
    "email": "tpiddocke7@usnews.com",
    "first_name": "Timotheus",
    "last_name": "Piddocke",
    "birthdate": "1978-10-31",
    "password": "k5YSZuYdpRBh"
  },
  {
    "email": "gchalk8@vk.com",
    "first_name": "Gerty",
    "last_name": "Chalk",
    "birthdate": "1970-10-05",
    "password": "g6SpcCJE8DqJ"
  },
  {
    "email": "acharles9@dedecms.com",
    "first_name": "Allis",
    "last_name": "Charles",
    "birthdate": "1982-04-26",
    "password": "IhF3eFvsB"
  },
  {
    "email": "fkollascha@stumbleupon.com",
    "first_name": "Faydra",
    "last_name": "Kollasch",
    "birthdate": "1968-06-07",
    "password": "ZyVwIszbJbc"
  },
  {
    "email": "wcursonsb@storify.com",
    "first_name": "Wilona",
    "last_name": "Cursons",
    "birthdate": "1972-12-03",
    "password": "ghunJk5P3I8H"
  },
  {
    "email": "etompkinsonc@prlog.org",
    "first_name": "Evelyn",
    "last_name": "Tompkinson",
    "birthdate": "1981-10-27",
    "password": "5dw0uX"
  },
  {
    "email": "lhartild@de.vu",
    "first_name": "Lukas",
    "last_name": "Hartil",
    "birthdate": "1981-04-23",
    "password": "qaaIY2lx"
  },
  {
    "email": "acubbinoe@over-blog.com",
    "first_name": "Ansell",
    "last_name": "Cubbino",
    "birthdate": "1999-12-07",
    "password": "ZYpIUzyuyhv"
  },
  {
    "email": "shainesf@acquirethisname.com",
    "first_name": "Stephen",
    "last_name": "Haines",
    "birthdate": "1980-11-09",
    "password": "t9BYTpb"
  },
  {
    "email": "agallantg@vkontakte.ru",
    "first_name": "Alane",
    "last_name": "Gallant",
    "birthdate": "1989-11-11",
    "password": "jOXN1by9La"
  },
  {
    "email": "ethumannh@weibo.com",
    "first_name": "Elnora",
    "last_name": "Thumann",
    "birthdate": "1993-09-23",
    "password": "igLey6"
  },
  {
    "email": "zfliegei@usatoday.com",
    "first_name": "Zerk",
    "last_name": "Fliege",
    "birthdate": "1973-05-10",
    "password": "vC8Am0DAR"
  },
  {
    "email": "jgardinerj@mapy.cz",
    "first_name": "Jordanna",
    "last_name": "Gardiner",
    "birthdate": "1998-02-26",
    "password": "6RIOt5"
  },
  {
    "email": "bfaichniek@wunderground.com",
    "first_name": "Bernelle",
    "last_name": "Faichnie",
    "birthdate": "1975-02-14",
    "password": "G6WdWXeRt"
  },
  {
    "email": "hcaughtryl@google.nl",
    "first_name": "Hersh",
    "last_name": "Caughtry",
    "birthdate": "1976-10-11",
    "password": "lXzNnnM0"
  },
  {
    "email": "cdarlowm@tiny.cc",
    "first_name": "Cameron",
    "last_name": "Darlow",
    "birthdate": "1994-11-01",
    "password": "AwxdKiJ5"
  },
  {
    "email": "hbauldn@chicagotribune.com",
    "first_name": "Hettie",
    "last_name": "Bauld",
    "birthdate": "1986-07-26",
    "password": "7q3SejYtX2d"
  },
  {
    "email": "piskowo@businessweek.com",
    "first_name": "Pam",
    "last_name": "Iskow",
    "birthdate": "1975-02-01",
    "password": "trgiuuXSDa8"
  },
  {
    "email": "anencip@bizjournals.com",
    "first_name": "Allis",
    "last_name": "Nenci",
    "birthdate": "1962-11-26",
    "password": "4qlwRzQ324"
  },
  {
    "email": "kbrendeq@godaddy.com",
    "first_name": "Kippar",
    "last_name": "Brende",
    "birthdate": "1970-01-25",
    "password": "zT8mvfl"
  },
  {
    "email": "mfrir@bbc.co.uk",
    "first_name": "Mada",
    "last_name": "Fri",
    "birthdate": "1991-05-14",
    "password": "150a87yvL0"
  },
  {
    "email": "sbraims@photobucket.com",
    "first_name": "Sallyann",
    "last_name": "Braim",
    "birthdate": "1997-01-25",
    "password": "GtVdkcflhNT"
  },
  {
    "email": "jstanhopet@gnu.org",
    "first_name": "Jeromy",
    "last_name": "Stanhope",
    "birthdate": "1967-01-10",
    "password": "NcE1ZzfzEs70"
  },
  {
    "email": "nnijsu@vkontakte.ru",
    "first_name": "Nap",
    "last_name": "Nijs",
    "birthdate": "1977-12-28",
    "password": "mgkmMO"
  },
  {
    "email": "grenderv@google.com.br",
    "first_name": "Gabriello",
    "last_name": "Render",
    "birthdate": "1997-09-24",
    "password": "OcOt1W9"
  },
  {
    "email": "ghutcheonw@whitehouse.gov",
    "first_name": "Grantley",
    "last_name": "Hutcheon",
    "birthdate": "1982-03-21",
    "password": "anPzVBZ8ijf"
  },
  {
    "email": "ihaseldinex@sun.com",
    "first_name": "Isidro",
    "last_name": "Haseldine",
    "birthdate": "1996-02-02",
    "password": "z4mLUL8Ok"
  },
  {
    "email": "ehuny@constantcontact.com",
    "first_name": "Erik",
    "last_name": "Hun",
    "birthdate": "1990-09-20",
    "password": "eH3mK7EAhl"
  },
  {
    "email": "rinkerz@bbb.org",
    "first_name": "Roosevelt",
    "last_name": "Inker",
    "birthdate": "1972-10-03",
    "password": "yDuVde"
  },
  {
    "email": "bkadar10@indiegogo.com",
    "first_name": "Baily",
    "last_name": "Kadar",
    "birthdate": "1986-03-13",
    "password": "4ZNusrDjZ"
  },
  {
    "email": "dedis11@bbb.org",
    "first_name": "Dorothee",
    "last_name": "Edis",
    "birthdate": "1996-08-08",
    "password": "TJDueS7"
  },
  {
    "email": "pgentsch12@state.gov",
    "first_name": "Prudi",
    "last_name": "Gentsch",
    "birthdate": "1980-07-04",
    "password": "QyoIplJ5k"
  },
  {
    "email": "dmouatt13@hc360.com",
    "first_name": "Denney",
    "last_name": "Mouatt",
    "birthdate": "1983-12-12",
    "password": "guCfZpAjtcxZ"
  },
  {
    "email": "wrymour14@jugem.jp",
    "first_name": "Winnie",
    "last_name": "Rymour",
    "birthdate": "1978-09-01",
    "password": "QFpvxAdQ"
  },
  {
    "email": "mdiable15@usa.gov",
    "first_name": "Madella",
    "last_name": "Diable",
    "birthdate": "1963-09-04",
    "password": "NXWoSI3QER9"
  },
  {
    "email": "mhilling16@wikia.com",
    "first_name": "Maryanna",
    "last_name": "Hilling",
    "birthdate": "1966-06-20",
    "password": "PcaYv4cB"
  },
  {
    "email": "tbrignall17@sitemeter.com",
    "first_name": "Thor",
    "last_name": "Brignall",
    "birthdate": "1996-03-21",
    "password": "J2X5Qx7t8dX"
  },
  {
    "email": "rwhanstall18@dailymail.co.uk",
    "first_name": "Raquela",
    "last_name": "Whanstall",
    "birthdate": "1967-12-22",
    "password": "scQcOPm"
  },
  {
    "email": "randrys19@walmart.com",
    "first_name": "Rachele",
    "last_name": "Andrys",
    "birthdate": "1971-06-27",
    "password": "F7ayS5Tf"
  },
  {
    "email": "qwhistlecroft1a@aboutads.info",
    "first_name": "Querida",
    "last_name": "Whistlecroft",
    "birthdate": "1968-06-04",
    "password": "FU8IPCgNKVQ"
  },
  {
    "email": "prosnau1b@who.int",
    "first_name": "Petronia",
    "last_name": "Rosnau",
    "birthdate": "1977-04-02",
    "password": "bubcRwPaLA"
  },
  {
    "email": "gpatington1c@google.pl",
    "first_name": "Gleda",
    "last_name": "Patington",
    "birthdate": "1987-08-09",
    "password": "YRnRhoi"
  },
  {
    "email": "alindegard1d@ftc.gov",
    "first_name": "Aida",
    "last_name": "Lindegard",
    "birthdate": "1993-04-09",
    "password": "VrIRJZNK"
  },
  {
    "email": "nkeslake1e@behance.net",
    "first_name": "Natale",
    "last_name": "Keslake",
    "birthdate": "1964-11-20",
    "password": "gX8f35p1f"
  },
  {
    "email": "aparadise1f@ameblo.jp",
    "first_name": "Andreas",
    "last_name": "Paradise",
    "birthdate": "1983-11-20",
    "password": "SNGjJZomux"
  },
  {
    "email": "mtownes1g@yellowbook.com",
    "first_name": "Marianna",
    "last_name": "Townes",
    "birthdate": "1985-06-26",
    "password": "DFGS0XkB6F"
  },
  {
    "email": "bespinos1h@dell.com",
    "first_name": "Brita",
    "last_name": "Espinos",
    "birthdate": "1969-09-09",
    "password": "IFnx4wLET"
  },
  {
    "email": "rguppie1i@tripod.com",
    "first_name": "Rickie",
    "last_name": "Guppie",
    "birthdate": "1979-11-27",
    "password": "0kcBGY"
  },
  {
    "email": "mellingsworth1j@creativecommons.org",
    "first_name": "Mellisa",
    "last_name": "Ellingsworth",
    "birthdate": "1961-06-08",
    "password": "MNJpDYxO"
  },
  {
    "email": "jhacquoil1k@wikispaces.com",
    "first_name": "Jobie",
    "last_name": "Hacquoil",
    "birthdate": "1976-09-27",
    "password": "tvUsUaEth"
  },
  {
    "email": "opley1l@aboutads.info",
    "first_name": "Odelia",
    "last_name": "Pley",
    "birthdate": "1992-02-28",
    "password": "xZ1LuYfqk"
  },
  {
    "email": "bmahaffey1m@addtoany.com",
    "first_name": "Billie",
    "last_name": "Mahaffey",
    "birthdate": "1973-01-10",
    "password": "giFz6FI"
  },
  {
    "email": "bsissons1n@surveymonkey.com",
    "first_name": "Breena",
    "last_name": "Sissons",
    "birthdate": "1994-03-09",
    "password": "lzEuaVgyi"
  },
  {
    "email": "hchilds1o@opera.com",
    "first_name": "Hyacinthia",
    "last_name": "Childs",
    "birthdate": "1996-04-22",
    "password": "iad20BRCI"
  },
  {
    "email": "ccritchell1p@timesonline.co.uk",
    "first_name": "Codie",
    "last_name": "Critchell",
    "birthdate": "1963-02-06",
    "password": "6kAkxvHLNR"
  },
  {
    "email": "shefferon1q@barnesandnoble.com",
    "first_name": "Sofie",
    "last_name": "Hefferon",
    "birthdate": "1972-04-12",
    "password": "18vLJMriqpq"
  },
  {
    "email": "hhassewell1r@wired.com",
    "first_name": "Heall",
    "last_name": "Hassewell",
    "birthdate": "1982-02-11",
    "password": "ZmBgzYzbI"
  },
  {
    "email": "ldufaire1s@bloomberg.com",
    "first_name": "Leonard",
    "last_name": "Dufaire",
    "birthdate": "1984-05-10",
    "password": "owFYR1"
  },
  {
    "email": "egypson1t@blog.com",
    "first_name": "Evin",
    "last_name": "Gypson",
    "birthdate": "1975-02-01",
    "password": "GnlGLI"
  },
  {
    "email": "twillgrass1u@desdev.cn",
    "first_name": "Ty",
    "last_name": "Willgrass",
    "birthdate": "1979-05-30",
    "password": "QkOaINGE"
  },
  {
    "email": "tskirving1v@jalbum.net",
    "first_name": "Tanitansy",
    "last_name": "Skirving",
    "birthdate": "1987-04-02",
    "password": "eZ8szy9YPj"
  },
  {
    "email": "grodda1w@goo.ne.jp",
    "first_name": "Glynis",
    "last_name": "Rodda",
    "birthdate": "1970-01-03",
    "password": "hhKHzj"
  },
  {
    "email": "qdansken1x@typepad.com",
    "first_name": "Quinton",
    "last_name": "Dansken",
    "birthdate": "1962-10-25",
    "password": "IQf1uI"
  },
  {
    "email": "fmourton1y@va.gov",
    "first_name": "Florance",
    "last_name": "Mourton",
    "birthdate": "1988-07-17",
    "password": "MzhX3E56"
  },
  {
    "email": "vcramond1z@bing.com",
    "first_name": "Vince",
    "last_name": "Cramond",
    "birthdate": "1991-07-06",
    "password": "UhNrXBQbRTnp"
  },
  {
    "email": "pstaton20@netscape.com",
    "first_name": "Poul",
    "last_name": "Staton",
    "birthdate": "1986-12-12",
    "password": "92G2cZh9W"
  },
  {
    "email": "bohingerty21@google.com",
    "first_name": "Bunni",
    "last_name": "O'Hingerty",
    "birthdate": "1996-03-20",
    "password": "73hgQlBE"
  },
  {
    "email": "veisig22@illinois.edu",
    "first_name": "Vera",
    "last_name": "Eisig",
    "birthdate": "1976-01-12",
    "password": "lx7E262bITyw"
  },
  {
    "email": "battard23@dailymail.co.uk",
    "first_name": "Bette",
    "last_name": "Attard",
    "birthdate": "1982-06-11",
    "password": "RtOsZsZeGR"
  },
  {
    "email": "apettyfar24@utexas.edu",
    "first_name": "Abrahan",
    "last_name": "Pettyfar",
    "birthdate": "1977-10-04",
    "password": "qEroX92HXM"
  },
  {
    "email": "jrobker25@tuttocitta.it",
    "first_name": "Joyan",
    "last_name": "Robker",
    "birthdate": "1991-04-03",
    "password": "9ggSJDwTTx"
  },
  {
    "email": "ppellant26@desdev.cn",
    "first_name": "Peyton",
    "last_name": "Pellant",
    "birthdate": "1996-07-16",
    "password": "9HfcvMxa"
  },
  {
    "email": "dchaikovski27@flickr.com",
    "first_name": "Delmore",
    "last_name": "Chaikovski",
    "birthdate": "1981-03-02",
    "password": "GNDmMdRe1K"
  },
  {
    "email": "bprimak28@prnewswire.com",
    "first_name": "Berri",
    "last_name": "Primak",
    "birthdate": "1962-07-14",
    "password": "Z2tJy10JScO1"
  },
  {
    "email": "scouves29@cornell.edu",
    "first_name": "Sadella",
    "last_name": "Couves",
    "birthdate": "1981-09-29",
    "password": "5J0e8cwbxC"
  },
  {
    "email": "vstillert2a@washington.edu",
    "first_name": "Victoir",
    "last_name": "Stillert",
    "birthdate": "1997-03-18",
    "password": "JnRQ5qnjFn"
  },
  {
    "email": "dcisco2b@typepad.com",
    "first_name": "Dot",
    "last_name": "Cisco",
    "birthdate": "1975-03-22",
    "password": "9RDcSxq1mp"
  },
  {
    "email": "scockerton2c@prweb.com",
    "first_name": "Sheeree",
    "last_name": "Cockerton",
    "birthdate": "1972-02-15",
    "password": "9bB148u"
  },
  {
    "email": "falderman2d@shutterfly.com",
    "first_name": "Fonzie",
    "last_name": "Alderman",
    "birthdate": "1960-08-26",
    "password": "yI0WN4"
  },
  {
    "email": "nsinclaire2e@freewebs.com",
    "first_name": "Neila",
    "last_name": "Sinclaire",
    "birthdate": "1991-09-05",
    "password": "eYbxDp"
  },
  {
    "email": "omalletratt2f@seattletimes.com",
    "first_name": "Olin",
    "last_name": "Malletratt",
    "birthdate": "1975-05-18",
    "password": "NOt2IeTwdf"
  },
  {
    "email": "twhellams2g@ed.gov",
    "first_name": "Tricia",
    "last_name": "Whellams",
    "birthdate": "1992-05-29",
    "password": "BFmPODEHf"
  },
  {
    "email": "hkeating2h@hibu.com",
    "first_name": "Hurlee",
    "last_name": "Keating",
    "birthdate": "1993-03-07",
    "password": "EBSkjhRNJx6G"
  },
  {
    "email": "solenane2i@columbia.edu",
    "first_name": "Shanan",
    "last_name": "O'Lenane",
    "birthdate": "1967-10-02",
    "password": "dPrPLVuVmLZ"
  },
  {
    "email": "rcaltun2j@geocities.com",
    "first_name": "Ruperta",
    "last_name": "Caltun",
    "birthdate": "1984-06-30",
    "password": "jMDB02rdWbfZ"
  },
  {
    "email": "acordon2k@china.com.cn",
    "first_name": "Aindrea",
    "last_name": "Cordon",
    "birthdate": "1994-08-24",
    "password": "tHRpGJyABk4"
  },
  {
    "email": "atidcombe2l@wired.com",
    "first_name": "Angeli",
    "last_name": "Tidcombe",
    "birthdate": "1970-01-22",
    "password": "UrdrOtO"
  },
  {
    "email": "vgrinsted2m@oakley.com",
    "first_name": "Valenka",
    "last_name": "Grinsted",
    "birthdate": "1984-06-03",
    "password": "OoOtP6LFsCx"
  },
  {
    "email": "vwilce2n@ox.ac.uk",
    "first_name": "Vincent",
    "last_name": "Wilce",
    "birthdate": "1990-10-25",
    "password": "SQNJCN"
  },
  {
    "email": "smckyrrelly2o@independent.co.uk",
    "first_name": "Scarlett",
    "last_name": "McKyrrelly",
    "birthdate": "1966-03-03",
    "password": "SoB5Nr08mWHm"
  },
  {
    "email": "adimmock2p@drupal.org",
    "first_name": "Andres",
    "last_name": "Dimmock",
    "birthdate": "1978-11-28",
    "password": "G50cTEtVA"
  },
  {
    "email": "adenyukin2q@zdnet.com",
    "first_name": "Abelard",
    "last_name": "Denyukin",
    "birthdate": "1986-06-04",
    "password": "sm3aTg5vc"
  },
  {
    "email": "cvasyutochkin2r@cpanel.net",
    "first_name": "Cally",
    "last_name": "Vasyutochkin",
    "birthdate": "1975-09-30",
    "password": "yJNoB8nZCu"
  }
]